SPI.sim/sim_1/behav/xsim/dump_spi.vcd
$date
   Fri Jun 19 22:36:24 2026
$end

$version
  2025.2
  $dumpfile ("dump_spi.vcd") 
$end

$timescale
  1ps
$end

$scope module test_spi $end
$var reg 1 ! clk $end
$var reg 1 " rst_n $end
$var reg 1 # wr_en $end
$var reg 8 $ wr_data [7:0] $end
$var wire 1 % full $end
$var wire 1 & empty $end
$var reg 1 ' cpol $end
$var reg 1 ( cpha $end
$var wire 1 ) miso $end
$var wire 1 * sclk $end
$var wire 1 + mosi $end
$var wire 1 , cs_n $end
$var wire 8 - rx_data [7:0] $end
$var wire 1 . rx_valid $end
$var wire 1 / busy $end
$var integer 32 0 push_idx [31:0] $end
$var integer 32 1 pop_idx [31:0] $end
$var integer 32 2 errors [31:0] $end
$scope module uut $end
$var wire 1 3 clk $end
$var wire 1 4 rst_n $end
$var wire 1 5 wr_en $end
$var wire 8 6 wr_data [7:0] $end
$var wire 1 % full $end
$var wire 1 & empty $end
$var wire 1 7 cpol $end
$var wire 1 8 cpha $end
$var wire 1 ) miso $end
$var wire 1 * sclk $end
$var wire 1 + mosi $end
$var wire 1 , cs_n $end
$var wire 8 - rx_data [7:0] $end
$var wire 1 . rx_valid $end
$var wire 1 / busy $end
$var wire 1 9 fifo_empty $end
$var wire 8 : tx_data_int [7:0] $end
$var wire 1 ; core_busy $end
$var reg 1 < fifo_rd_en $end
$var reg 1 = core_start $end
$var wire 1 > pop_ok $end
$scope module tx_buffer $end
$var wire 1 3 clk $end
$var wire 1 4 rst_n $end
$var wire 1 5 wr_en $end
$var wire 8 6 wr_data [7:0] $end
$var wire 1 % full $end
$var wire 1 ? rd_en $end
$var reg 8 @ rd_data [7:0] $end
$var wire 1 9 empty $end
$var reg 4 A wr_ptr [3:0] $end
$var reg 4 B rd_ptr [3:0] $end
$upscope $end
$scope module spi_engine $end
$var wire 1 3 clk $end
$var wire 1 4 rst_n $end
$var wire 8 : tx_data [7:0] $end
$var wire 1 C start $end
$var wire 1 7 cpol $end
$var wire 1 8 cpha $end
$var reg 8 D rx_data [7:0] $end
$var reg 1 E busy $end
$var reg 1 F rx_valid $end
$var wire 1 ) miso $end
$var reg 1 G mosi $end
$var reg 1 H sclk $end
$var reg 1 I cs_n $end
$var reg 2 J state [1:0] $end
$var reg 8 K tx_shift [7:0] $end
$var reg 8 L rx_shift [7:0] $end
$var reg 2 M clk_cnt [1:0] $end
$var reg 4 N edge_cnt [3:0] $end
$var wire 1 O clk_tick $end
$var wire 1 P sample_edge $end
$var wire 1 Q shift_edge $end
$var wire 1 R last_edge $end
$upscope $end
$upscope $end
$scope task write_byte $end
$var reg 8 S data [7:0] $end
$upscope $end
$upscope $end
$enddefinitions $end

#0
$dumpvars
0!
0"
0#
b0 $
0%
1&
0'
0(
x)
0*
0+
1,
b0 -
0.
0/
b0 0
b0 1
b0 2
03
04
05
b0 6
07
08
19
b0 :
0;
0<
0=
0>
0?
b0 @
b0 A
b0 B
0C
b0 D
0E
0F
0G
0H
1I
b0 J
b0 K
b0 L
b0 M
b0 N
0O
1P
0Q
0R
bx S
$end

#1000
0)

#5000
1!
13

#10000
0!
03

#15000
1!
13

#20000
0!
1"
03
14

#25000
1!
13

#30000
0!
03

#35000
1!
13

#40000
0!
03
b10100101 S

#45000
1!
1#
b10100101 $
b1 0
13
15
b10100101 6

#50000
0!
03

#55000
1!
0#
0&
13
05
09
1>
b1 A
b111100 S

#60000
0!
03

#65000
1!
1#
b111100 $
1/
b10 0
13
15
b111100 6
1<
0>
1?

#70000
0!
03

#75000
1!
0#
13
05
b10100101 :
0<
1=
0?
b10100101 @
b10 A
b1 B
1C

#80000
0!
03

#85000
1!
1+
0,
13
1;
0=
0C
1E
1G
0I
b1 J
b1001010 K

#86000
1)

#90000
0!
03

#95000
1!
13
b1 M
1O

#100000
0!
03

#105000
1!
1*
13
1H
b1 L
b0 M
b1 N
0O
0P
1Q

#110000
0!
03

#115000
1!
13
b1 M
1O

#120000
0!
03

#125000
1!
0*
0+
13
0G
0H
b10010100 K
b0 M
b10 N
0O
1P
0Q

#126000
0)

#130000
0!
03

#135000
1!
13
b1 M
1O

#140000
0!
03

#145000
1!
1*
13
1H
b10 L
b0 M
b11 N
0O
0P
1Q

#150000
0!
03

#155000
1!
13
b1 M
1O

#160000
0!
03

#165000
1!
0*
1+
13
1G
0H
b101000 K
b0 M
b100 N
0O
1P
0Q

#166000
1)

#170000
0!
03

#175000
1!
13
b1 M
1O

#180000
0!
03

#185000
1!
1*
13
1H
b101 L
b0 M
b101 N
0O
0P
1Q

#190000
0!
03

#195000
1!
13
b1 M
1O

#200000
0!
03

#205000
1!
0*
0+
13
0G
0H
b1010000 K
b0 M
b110 N
0O
1P
0Q

#206000
0)

#210000
0!
03

#215000
1!
13
b1 M
1O

#220000
0!
03

#225000
1!
1*
13
1H
b1010 L
b0 M
b111 N
0O
0P
1Q

#230000
0!
03

#235000
1!
13
b1 M
1O

#240000
0!
03

#245000
1!
0*
13
0H
b10100000 K
b0 M
b1000 N
0O
1P
0Q

#250000
0!
03

#255000
1!
13
b1 M
1O

#260000
0!
03

#265000
1!
1*
13
1H
b10100 L
b0 M
b1001 N
0O
0P
1Q

#270000
0!
03

#275000
1!
13
b1 M
1O

#280000
0!
03

#285000
1!
0*
1+
13
1G
0H
b1000000 K
b0 M
b1010 N
0O
1P
0Q

#286000
1)

#290000
0!
03

#295000
1!
13
b1 M
1O

#300000
0!
03

#305000
1!
1*
13
1H
b101001 L
b0 M
b1011 N
0O
0P
1Q

#310000
0!
03

#315000
1!
13
b1 M
1O

#320000
0!
03

#325000
1!
0*
0+
13
0G
0H
b10000000 K
b0 M
b1100 N
0O
1P
0Q

#326000
0)

#330000
0!
03

#335000
1!
13
b1 M
1O

#340000
0!
03

#345000
1!
1*
13
1H
b1010010 L
b0 M
b1101 N
0O
0P
1Q

#350000
0!
03

#355000
1!
13
b1 M
1O

#360000
0!
03

#365000
1!
0*
1+
13
1G
0H
b0 K
b0 M
b1110 N
0O
1P
0Q

#366000
1)

#370000
0!
03

#375000
1!
13
b1 M
1O

#380000
0!
03

#385000
1!
1*
13
1H
b10100101 L
b0 M
b1111 N
0O
0P
1Q
1R

#390000
0!
03

#395000
1!
13
b1 M
1O

#400000
0!
03

#405000
1!
0*
0+
13
0G
0H
b10 J
b0 M
b0 N
0O
1P
0Q
0R

#406000
0)

#410000
0!
03

#415000
1!
13
b1 M
1O

#420000
0!
03

#425000
1!
1,
b10100101 -
1.
0/
13
0;
1>
b10100101 D
0E
1F
1I
b0 J

#430000
0!
03

#435000
1!
0.
1/
b1 1
13
1<
0>
1?
0F
b0 M
0O

#440000
0!
03

#445000
1!
1&
13
19
b111100 :
0<
1=
0?
b111100 @
b10 B
1C

#450000
0!
03

#455000
1!
0,
13
1;
0=
0C
1E
0I
b1 J
b1111000 K

#460000
0!
03

#465000
1!
13
b1 M
1O

#470000
0!
03

#475000
1!
1*
13
1H
b1001010 L
b0 M
b1 N
0O
0P
1Q

#480000
0!
03

#485000
1!
13
b1 M
1O

#490000
0!
03

#495000
1!
0*
13
0H
b11110000 K
b0 M
b10 N
0O
1P
0Q

#500000
0!
03

#505000
1!
13
b1 M
1O

#510000
0!
03

#515000
1!
1*
13
1H
b10010100 L
b0 M
b11 N
0O
0P
1Q

#520000
0!
03

#525000
1!
13
b1 M
1O

#530000
0!
03

#535000
1!
0*
1+
13
1G
0H
b11100000 K
b0 M
b100 N
0O
1P
0Q

#536000
1)

#540000
0!
03

#545000
1!
13
b1 M
1O

#550000
0!
03

#555000
1!
1*
13
1H
b101001 L
b0 M
b101 N
0O
0P
1Q

#560000
0!
03

#565000
1!
13
b1 M
1O

#570000
0!
03

#575000
1!
0*
13
0H
b11000000 K
b0 M
b110 N
0O
1P
0Q

#580000
0!
03

#585000
1!
13
b1 M
1O

#590000
0!
03

#595000
1!
1*
13
1H
b1010011 L
b0 M
b111 N
0O
0P
1Q

#600000
0!
03

#605000
1!
13
b1 M
1O

#610000
0!
03

#615000
1!
0*
13
0H
b10000000 K
b0 M
b1000 N
0O
1P
0Q

#620000
0!
03

#625000
1!
13
b1 M
1O

#630000
0!
03

#635000
1!
1*
13
1H
b10100111 L
b0 M
b1001 N
0O
0P
1Q

#640000
0!
03

#645000
1!
13
b1 M
1O

#650000
0!
03

#655000
1!
0*
13
0H
b0 K
b0 M
b1010 N
0O
1P
0Q

#660000
0!
03

#665000
1!
13
b1 M
1O

#670000
0!
03

#675000
1!
1*
13
1H
b1001111 L
b0 M
b1011 N
0O
0P
1Q

#680000
0!
03

#685000
1!
13
b1 M
1O

#690000
0!
03

#695000
1!
0*
0+
13
0G
0H
b0 M
b1100 N
0O
1P
0Q

#696000
0)

#700000
0!
03

#705000
1!
13
b1 M
1O

#710000
0!
03

#715000
1!
1*
13
1H
b10011110 L
b0 M
b1101 N
0O
0P
1Q

#720000
0!
03

#725000
1!
13
b1 M
1O

#730000
0!
03

#735000
1!
0*
13
0H
b0 M
b1110 N
0O
1P
0Q

#740000
0!
03

#745000
1!
13
b1 M
1O

#750000
0!
03

#755000
1!
1*
13
1H
b111100 L
b0 M
b1111 N
0O
0P
1Q
1R

#760000
0!
03

#765000
1!
13
b1 M
1O

#770000
0!
03

#775000
1!
0*
13
0H
b10 J
b0 M
b0 N
0O
1P
0Q
0R

#780000
0!
03

#785000
1!
13
b1 M
1O

#790000
0!
03

#795000
1!
1,
b111100 -
1.
0/
13
0;
b111100 D
0E
1F
1I
b0 J

#800000
0!
03

#805000
1!
0.
b10 1
13
0F
b0 M
0O

#810000
0!
03

#815000
1!
13

#820000
0!
03

#825000
1!
13

#830000
0!
03

#835000
1!
13

#840000
0!
03

#845000
1!
13

#850000
0!
03

#855000
1!
13

#860000
0!
03

#865000
1!
13

#870000
0!
03

#875000
1!
13

#880000
0!
03

#885000
1!
13

#890000
0!
03

#895000
1!
13

#900000
0!
03

#905000
1!
1#
b11111111 $
1(
b11 0
13
15
b11111111 6
18
0P
1Q
b11111111 S

#910000
0!
03

#915000
1!
0#
0&
13
05
09
1>
b11 A
b0 S

#920000
0!
03

#925000
1!
1#
b0 $
1/
b100 0
13
15
b0 6
1<
0>
1?

#930000
0!
03

#935000
1!
0#
13
05
b11111111 :
0<
1=
0?
b11111111 @
b100 A
b11 B
1C

#940000
0!
03

#945000
1!
0,
13
1;
0=
0C
1E
0I
b1 J
b11111111 K

#950000
0!
03

#955000
1!
13
b1 M
1O

#960000
0!
03

#965000
1!
1*
1+
13
1G
1H
b11111110 K
b0 M
b1 N
0O
1P
0Q

#966000
1)

#970000
0!
03

#975000
1!
13
b1 M
1O

#980000
0!
03

#985000
1!
0*
13
0H
b1111001 L
b0 M
b10 N
0O
0P
1Q

#990000
0!
03

#995000
1!
13
b1 M
1O

